…
    ## $ul
    ## [1] "SiZ9"
    ## 
    ## $ul_price
    ## [1] 64511
    ## 
    ## $now
    ## [1] "2019-11-12"
    ## 
    ## $board
    ## # A tibble: 555 x 12
    ##    ticker classcode ul    xtype strike expdate    iv.theor price.ask price.bid price.theor
    ##    <chr>  <chr>     <chr> <chr>  <dbl> <date>        <dbl>     <dbl>     <dbl>       <dbl>
    ##  1 SiZ9   SPBFUT    Si    f         NA 2019-12-18   NA         64511     64509       64511
    ##  2 Si520~ SPBOPT    SiZ9  c      52000 2019-12-18    0.241         0         0       12492
    ##  3 Si520~ SPBOPT    SiZ9  p      52000 2019-12-18    0.241         0         0           3
    ##  4 Si522~ SPBOPT    SiZ9  c      52250 2019-12-18    0.238         0         0       12242
    ##  5 Si522~ SPBOPT    SiZ9  p      52250 2019-12-18    0.238         0         0           3
    ##  6 Si525~ SPBOPT    SiZ9  c      52500 2019-12-18    0.235         0         0       11992
    ##  7 Si525~ SPBOPT    SiZ9  p      52500 2019-12-18    0.235         0         0           3
    ##  8 Si527~ SPBOPT    SiZ9  c      52750 2019-12-18    0.231         0         0       11742
    ##  9 Si527~ SPBOPT    SiZ9  p      52750 2019-12-18    0.231         0         0           3
    ## 10 Si530~ SPBOPT    SiZ9  c      53000 2019-12-18    0.228         0         0       11493
    ## # ... with 545 more rows, and 2 more variables: price.last <dbl>, oi <dbl>
    ## 
    ## attr(,"class")
    ## [1] "OptMarket"
…
